<svg xmlns="http://www.w3.org/2000/svg" width="74.434" height="74.434" viewBox="0 0 74.434 74.434">
  <g id="user_girl" transform="translate(1 1)">
    <circle id="Ellipse_49" data-name="Ellipse 49" cx="36.217" cy="36.217" r="36.217" transform="translate(0 0)" fill="#e5f9e0" stroke="#535e7d" stroke-miterlimit="10" stroke-width="2"/>
    <path id="Path_81" data-name="Path 81" d="M49.9,169.1a36.249,36.249,0,0,0,41.836,0Z" transform="translate(-34.314 -104.213)" fill="#f7941e"/>
    <g id="Group_38" data-name="Group 38" transform="translate(15.586 14.684)">
      <g id="Group_37" data-name="Group 37">
        <rect id="Rectangle_68" data-name="Rectangle 68" width="8.49" height="9.475" transform="translate(16.365 35.766)" fill="#fdcc9b"/>
        <path id="Path_82" data-name="Path 82" d="M89.8,135.007a14.473,14.473,0,0,0,8.49,1.764V133.9H89.8Z" transform="translate(-73.435 -98.134)" fill="#fcbc85"/>
        <ellipse id="Ellipse_43" data-name="Ellipse 43" cx="4.143" cy="4.717" rx="4.143" ry="4.717" transform="translate(0 16.324)" fill="#fcbc85"/>
        <ellipse id="Ellipse_44" data-name="Ellipse 44" cx="4.143" cy="4.717" rx="4.143" ry="4.717" transform="translate(32.936 16.324)" fill="#fcbc85"/>
        <path id="Path_83" data-name="Path 83" d="M92.97,58.718c0-6.932-5.086-12.018-16.447-12.018S60.076,51.786,60.076,58.718,58.886,83.983,76.523,83.983,92.97,65.69,92.97,58.718Z" transform="translate(-55.892 -46.7)" fill="#fdcc9b"/>
        <g id="Group_36" data-name="Group 36" transform="translate(9.595 12.756)">
          <g id="Group_34" data-name="Group 34" transform="translate(1.234 5.209)">
            <ellipse id="Ellipse_45" data-name="Ellipse 45" cx="1.764" cy="1.969" rx="1.764" ry="1.969" fill="#3b2519"/>
            <ellipse id="Ellipse_46" data-name="Ellipse 46" cx="0.533" cy="0.533" rx="0.533" ry="0.533" transform="translate(0.492 0.574)" fill="#fff"/>
          </g>
          <path id="Path_84" data-name="Path 84" d="M73.46,80.138c.861.41,2.174-1.436,5.291.164.574.287.9-2.5-2.42-2.5C73.46,77.8,72.967,79.892,73.46,80.138Z" transform="translate(-73.293 -77.8)" fill="#51362a"/>
          <g id="Group_35" data-name="Group 35" transform="translate(17.476 5.209)">
            <ellipse id="Ellipse_47" data-name="Ellipse 47" cx="1.764" cy="1.969" rx="1.764" ry="1.969" fill="#3b2519"/>
            <ellipse id="Ellipse_48" data-name="Ellipse 48" cx="0.533" cy="0.533" rx="0.533" ry="0.533" transform="translate(0.451 0.574)" fill="#fff"/>
          </g>
          <path id="Path_85" data-name="Path 85" d="M118.464,80.138c-.861.41-2.174-1.436-5.291.164-.574.287-.9-2.5,2.42-2.5C118.464,77.8,119,79.892,118.464,80.138Z" transform="translate(-96.599 -77.8)" fill="#51362a"/>
        </g>
        <path id="Path_86" data-name="Path 86" d="M96.13,110.761c-1.764,0-2.83-1.312-2.83-.7,0,.656.492,1.846,2.83,1.846s2.83-1.189,2.83-1.846C98.919,109.449,97.894,110.761,96.13,110.761Z" transform="translate(-75.499 -83.978)" fill="#fcbc85"/>
        <path id="Path_87" data-name="Path 87" d="M98.784,125.769c-.615,0-.984-.451-.984-.246s.164.656.984.656.984-.41.984-.656C99.728,125.318,99.4,125.769,98.784,125.769Z" transform="translate(-78.153 -93.162)" fill="#fcbc85"/>
        <path id="Path_88" data-name="Path 88" d="M93.771,121c-2.789,0-4.471-1.148-4.471-.861s.82,1.436,4.471,1.436,4.471-1.148,4.471-1.436S96.56,121,93.771,121Z" transform="translate(-73.14 -89.987)" fill="#f7945e"/>
      </g>
      <path id="Path_89" data-name="Path 89" d="M70.59,143.2v10.664H50C50,149.557,60.828,143.2,70.59,143.2Z" transform="translate(-49.959 -103.62)" fill="#f7941e"/>
      <path id="Path_90" data-name="Path 90" d="M100.2,143.2v10.664h20.59C120.79,149.557,109.921,143.2,100.2,143.2Z" transform="translate(-79.569 -103.62)" fill="#f7941e"/>
      <path id="Path_91" data-name="Path 91" d="M91.234,143.2a26.757,26.757,0,0,0-6.234.779,8.425,8.425,0,0,0,6.234,2.953,9.2,9.2,0,0,0,6.481-2.912A29.217,29.217,0,0,0,91.234,143.2Z" transform="translate(-70.603 -103.62)" fill="#f36c21"/>
      <path id="Path_92" data-name="Path 92" d="M89.8,143.078a6.639,6.639,0,0,0,8.449,0A13.294,13.294,0,0,0,89.8,143.078Z" transform="translate(-73.435 -103.128)" fill="#fdcc9b"/>
    </g>
    <path id="Path_93" data-name="Path 93" d="M68.447,26.8C48.677,26.8,46.38,40.335,47.2,56.331S62.007,80.2,62.007,80.2,46.339,58.464,59.382,39.392c0,0-2.461,4.1-2.3,7.506,0,0,3.076-1.025,11.4-1.025S79.89,46.9,79.89,46.9c.123-3.4-2.3-7.506-2.3-7.506C90.636,58.464,74.968,80.2,74.968,80.2s13.986-7.875,14.807-23.871C90.554,40.335,88.216,26.8,68.447,26.8Z" transform="translate(-32.64 -20.278)" fill="#684b37"/>
  </g>
</svg>
